[
    "αβγό", 
    "αβγοτάραχο", 
    "αβγόχυλος", 
    "αβοκάντο", 
    "αγάρ αγάρ", 
    "αγγούρι", 
    "αγιολί ", 
    "αγιωργίτικο ", 
    "αγκινάρα ", 
    "αγκινάρα ", 
    "αγουρίδα ", 
    "aγρια μανιτάρια", 
    "αηδάνι ", 
    "αθερίνα ", 
    "αθήρι ", 
    "αϊράνι ", 
    "ακανές ", 
    "ακιντές ", 
    "ακτινίδιο ", 
    "αλάτι ", 
    "αλάτι ορυκτό", 
    "αλεύρι ", 
    "αλεύρι από αμύγδαλο ", 
    "αλεύρι από αποξηραμένο καλαμπόκι ή καλαμποκάλευρο ", 
    "αλεύρι από κινόα ", 
    "αλεύρι από σόγια ", 
    "αλιβάρβαρα ", 
    "αλίπαστα ", 
    "αλμη ", 
    "αλμύρα ", 
    "αμαθιές ", 
    "αμαντίν ", 
    "αμάρανθος ", 
    "αμαρέτι ", 
    "αμπελοβλάσταρο ", 
    "αμπελόφυλλο ", 
    "αμύγδαλο ", 
    "αμύγδαλο ασπρισμένο ", 
    "αμύγδαλο φιλέ ", 
    "αμυγδαλόπαστα ", 
    "αμυγδαλωτό ", 
    "αμυλο ", 
    "ανανάς ", 
    "ανγκοστούρα ", 
    "αντζέλικα ", 
    "αντζούγια ", 
    "ανηθος ", 
    "ανθρίσκος ", 
    "αντίβ ", 
    "αντίδι ", 
    "αντιπάστο ", 
    "αντράκλα ", 
    "απάκι ", 
    "απόχτι ", 
    "αρακάς ", 
    "αραντσίνι/arancini ", 
    "αργκάν ", 
    "αρισμαρί ", 
    "αρμεξιά", 
    "αρμπαρόριζα ", 
    "αρνί ", 
    "αρσενικό ", 
    "αρτεμισία ", 
    "ασκόλυμπρος ", 
    "ασκορδούλακοι ", 
    "ασουρές ", 
    "ασπίκ ", 
    "αστακός ", 
    "αστεροειδής", 
    "ασύρτικο ", 
    "αυγάτο ", 
    "αχηβάδα ", 
    "αχινός ", 
    "αχλάδι ", 
    "βακαλάος ", 
    "βαλάνες ", 
    "βαλανολιά ", 
    "βαλεριάνα ", 
    "βανίλια ", 
    "βανίλιας ", 
    "βανίλιας ", 
    "βανιλίνη ", 
    "βασερέν ", 
    "βασιλικός ", 
    "βερίκοκo ", 
    "βερμούτ ", 
    "βινεγκρέτ ", 
    "βλάχος ", 
    "βλίτο ", 
    "βολ-ο-βαν ", 
    "βότκα ", 
    "βούγλωσσο ", 
    "βούτυρο ", 
    "βρόμη ", 
    "βρούβες ", 
    "βύσσινο ", 
    "γαϊδαροελιά ", 
    "γάλα ", 
    "γάλα αµυγδάλου", 
    "γάλα καρύδας", 
    "γάλα σόγιας", 
    "γαλακτομπούρεκο ", 
    "γαλατόπιτα ", 
    "γαλέος ", 
    "γαλέτα ", 
    "γαλοπούλα ", 
    "γαρδούμπα ", 
    "γαρίδα ", 
    "γαρίφαλο ", 
    "γαύρος ", 
    "γέμιση ", 
    "γιαλαντζί ", 
    "γιαννιώτικο ", 
    "γιαούρτι ", 
    "γιαπράκια ", 
    "γιαρμάς ", 
    "γιαχνί ", 
    "γίδα ", 
    "γκαϊγκανάς ", 
    "γκάλανγκαλ ", 
    "γκάµπο ", 
    "γκαράμ μασάλα ", 
    "γκασπάτσο ", 
    "γκιούλμπασι ", 
    "γκοργκοντζόλα ", 
    "γκουάβα ", 
    "γκούλας ", 
    "γκούντα ", 
    "γκραν mαρνιέ ", 
    "γκρανόλα ", 
    "γκράπα ", 
    "γκρέιπσιντ όιλ ", 
    "γκρέιπφρουτ ", 
    "γκριγιέρ ", 
    "γλάσο ", 
    "γλίνος ", 
    "γλιστρίδα ", 
    "γλυκάνισο ", 
    "γλυκοπατάτα ", 
    "γλυκόριζα ", 
    "γλώσσα ", 
    "γογγύλι ", 
    "γογκίδες ", 
    "γόπα ", 
    "γουακαµόλε", 
    "γουασάµπι ", 
    "γούνα ", 
    "γουοκ ", 
    "γουρουνοκεφαλή ", 
    "γουρουνόπουλο ", 
    "γούστερ σος ", 
    "γοφάρι ", 
    "γραβιέρα ", 
    "γρανίτα ", 
    "γρεναδίνη ", 
    "γριβάδι ", 
    "γυαλιστερή ", 
    "∆αµάσκηνο", 
    "δάφνη ", 
    "δαφνόφυλλη ", 
    "δεντρολίβανο ", 
    "∆ηµητριακά", 
    "∆ίπλες", 
    "δυόσμος ", 
    "εβρίστη ", 
    "εκλέρ ", 
    "ελαιόλαδο ", 
    "ελιά ", 
    "aγρινίου:", 
    "αμφίσσης", 
    "bόλου", 
    "kαλαμάτας", 
    "kοθρέικη", 
    "kορωνέικη", 
    "mεγαρίτικη", 
    "πρεβέζης", 
    "ενταµ", 
    "εµενταλ ", 
    "επουάς ", 
    "εργολάβος ", 
    "εσαλότ ", 
    "eσκαλόπ ", 
    "εστραγκόν ", 
    "zαμπαγιόνε ", 
    "zαμπόν ", 
    "ζαργάνα ", 
    "zαφορά ", 
    "ζάχαρη ", 
    "ζελατίνη ", 
    "ζου ", 
    "ζουλιέν ", 
    "ζοχός ", 
    "ζυγούρι ", 
    "ζωμός ", 
    "ηλιέλαιο ", 
    "ηλιόσπορος ", 
    "θράψαλο ", 
    "θρούμπα ", 
    "θρούμπι ", 
    "θυμάρι ", 
    "θύννος ", 
    "iμάμ μπαϊλντί", 
    "ισλί ", 
    "κάβα ", 
    "κάβολο νέρο", 
    "καβούρι ", 
    "καβουρμάς ", 
    "καγιανάς ", 
    "καγιέν ", 
    "καζάν ντιμπί", 
    "καζού ", 
    "καϊµάκι ", 
    "κακαβιά ", 
    "κακάο ", 
    "κακουλές ", 
    "καλαµάρι", 
    "καλαμποκάλευρο ", 
    "καλαµπόκι", 
    "καλαμποκόψωμο ", 
    "καλβαντός ", 
    "καλκάνι ", 
    "καλόγνωμες ", 
    "καλούα ", 
    "καμαμπέρ ντε νορμαντί", 
    "καμπάρι ", 
    "καμπράλες ", 
    "κανέλα ", 
    "καπ κέικ", 
    "καπαμάς ", 
    "καπόνι ", 
    "κάππαρη ", 
    "καραβίδα ", 
    "καραβόλοι ", 
    "καραµέλα", 
    "κάρδαμο ", 
    "καρέ ", 
    "κάρι ", 
    "καρκάνι ", 
    "καρότο ", 
    "καρπάτσο ", 
    "καρπούζι ", 
    "καρύδα ", 
    "καρύδι ", 
    "καρύδι ", 
    "κασάβα ", 
    "κασάτο ", 
    "κάσιους ", 
    "κασίς ", 
    "κασουλέ ", 
    "κάστανο ", 
    "κατσίκα ", 
    "καυκαλήθρα ", 
    "καφές ", 
    "κέδρος ", 
    "κενέλ ", 
    "κεντανές ", 
    "κεράσι ", 
    "κέτσαπ ", 
    "κέφαλος ", 
    "κεφαλοτύρι ", 
    "κεφίρ ", 
    "κεφτές ", 
    "κεχρί ", 
    "κιάντι ", 
    "κιλότο ", 
    "κιμάς ", 
    "κινέζικη πάπια", 
    "κινόα ", 
    "κις λορέν", 
    "κλαστάδες ", 
    "κλαφουτί ", 
    "κληµεντίνη", 
    "κοιλιά ", 
    "κοκκάλι ", 
    "κοκορέτσι ", 
    "κοκτέιλ ", 
    "κόλιαντρο ", 
    "κολιός ", 
    "κόλλυβα ", 
    "κολοκάσι ", 
    "κολοκύθα ", 
    "κολοκυθάκι ", 
    "κολοκυθανθός ", 
    "κολοχτύπα ", 
    "κόλσλο ", 
    "κολυμβάδες ", 
    "κομπόστα ", 
    "κοµπτ", 
    "κομφέτο ", 
    "κονιάκ ", 
    "κονκασέ ", 
    "κονσοµέ", 
    "κόντρα ", 
    "κονφί ", 
    "κοπάνι ", 
    "κοπανιστή ", 
    "κορν φλάουρ", 
    "kορνέ ", 
    "κορνμπίφ ", 
    "kορόμηλο ", 
    "κορτεζίνες ", 
    "koρφοελιά ", 
    "κόσερ ", 
    "kοσιμάρι ", 
    "κότατζ ", 
    "κοτολέτα ", 
    "κοτόπουλο ", 
    "κοτόπουλο ", 
    "κότσι ", 
    "κοτσιφάλι ", 
    "κουάκερ ", 
    "κουαντρό ", 
    "κουβερτούρα ", 
    "κουκί ", 
    "κουκουνάρι ", 
    "κουμ κουάτ", 
    "κουνέλι ", 
    "κουνουπίδι ", 
    "κούπες ", 
    "κουρακάο ", 
    "κουρκουμάς ", 
    "κουσκούς ", 
    "κουτσομούρα ", 
    "κράμβη ", 
    "κράνμπερι ", 
    "κράνµπερι σος", 
    "κράπφεν ", 
    "κρεµµύδι ", 
    "κρεμόριο ", 
    "κρέπα ", 
    "κρίταμο ", 
    "κροκέτα ", 
    "κροκ μεσιέ (croque monsieur) ", 
    "κρόκος ", 
    "kρουντίτ ", 
    "κρουστάντ ", 
    "κρουτόν ", 
    "κυδώνι ", 
    "κυδώνι ", 
    "κύμινο ", 
    "κυπρίνος ", 
    "λα σερένα", 
    "λαβράκι ", 
    "λάγκερ ", 
    "λαγκίτες ", 
    "λαγός ", 
    "λαγόχορτο ", 
    "λαγωτό ", 
    "λάδι ", 
    "λάιμ ", 
    "λαιμός ", 
    "λακέρδα ", 
    "λαλάγγια ", 
    "λαμπριάτης ", 
    "λάπα ", 
    "λάπαθο ", 
    "λαρδί ", 
    "λαρντόν ", 
    "λαχανάκι βρυξελλών ", 
    "λάχανο ", 
    "λεβάντα ", 
    "λεµόνι ", 
    "λεονόρα ", 
    "λιανοελιά ", 
    "λιαστή ντοµάτα ", 
    "λικέρ ", 
    "λίκορις ", 
    "λικουρίνος ", 
    "λινάρι ", 
    "λίτσι ", 
    "λουβιά ", 
    "λουίζα ", 
    "λουκάνικο ", 
    "λουκουµάς", 
    "λουκούμι ", 
    "λούντζα ", 
    "λούτσος ", 
    "λυθρίνι ", 
    "λωτός ", 
    "μαγιά ", 
    "mαγιάτικο ", 
    "mαγιονέζα ", 
    "μάγουλα ", 
    "μαδέιρα", 
    "mαϊντανός ", 
    "μακαντέµια", 
    "μακαρόν ", 
    "μαλαγουζιά ", 
    "mαλάκα ", 
    "mαλεμπί ", 
    "μαλλιά αγγέλου", 
    "mαμαλίγκα ", 
    "μάνγκο ", 
    "mανζ του", 
    "μανιτάρι ", 
    "mαντέμι ", 
    "μαντζουράνα ", 
    "μαντηλαριά ", 
    "μαντί ", 
    "μαντλέν", 
    "μάντολα ", 
    "μαόν", 
    "mάραθος ", 
    "mαρακούγια ", 
    "mαρασκίνο ", 
    "μαργαρίνη ", 
    "μαρέγκα ", 
    "μαρμελάδα ", 
    "mαρμίτα ", 
    "μαρουβάς ", 
    "μαρούλι ", 
    "mαρσάλα ", 
    "μασκαρπόνε ", 
    "μαστέλο ", 
    "mαστοειδής ", 
    "μαυροδάφνη ", 
    "mαυροκούκι ", 
    "mαχλέπι ", 
    "μέιπλ σίροπ", 
    "μελανούρι ", 
    "μέλας ζωµός ", 
    "μέλι ", 
    "μελισσόχορτο ", 
    "μελιτζάνα ", 
    "μήλο ", 
    "μηρός ", 
    "μινεστρόνε ", 
    "mιρμιτζέλι ", 
    "μορταδέλα ", 
    "mοσκιός ", 
    "mόστρα ", 
    "μοσχάρι ", 
    "mοσχάρι στρογγανόφ", 
    "μοσχοκάρυδο ", 
    "μοσχοφίλερο ", 
    "μοτσαρέλα ντι μπουφάλα", 
    "μουσκοβάντο ", 
    "μούσλι ", 
    "μουστάρδα ", 
    "μουστάρδας φύλλα", 
    "μούστος ", 
    "μπαγκέτα ", 
    "μπαζλάμα ", 
    "μπακαλιάρος ", 
    "μπακλαβάς ", 
    "μπαλεζές ", 
    "μπαλότια ", 
    "μπάμια ", 
    "μπαμπάς ", 
    "μπάμπω ", 
    "μπανάνα ", 
    "μπάνια κάουντα", 
    "μπαρδουνιώτικο ", 
    "μπαρμπουλέ ", 
    "μπατόν σαλέ", 
    "μπατσάρα ", 
    "μπαχάρι ", 
    "μπέικιν πάουντερ ", 
    "μπέικον ", 
    "μπέρενκας", 
    "μπέρμπον ", 
    "μπεσαμέλ ", 
    "μπιάλι ", 
    "μπίγκολι ", 
    "μπιν σπράουτς ", 
    "μπίρα ", 
    "μπίτερ λέμον ", 
    "μπιφτέκι ", 
    "μπλαμάνζ ", 
    "μπλε τυρί ", 
    "μπλίνι ", 
    "μποκ τσόι ", 
    "μπον φιλέ ", 
    "μπούτι ", 
    "μπουγιαμπέσα ", 
    "μπούκοβο ", 
    "μπουργέτο ", 
    "μπουρέκι ", 
    "μπουρίτο ", 
    "μπρεζάολα ", 
    "μπρι ", 
    "μπριζόλα ", 
    "μοσχαρίσια ", 
    "χοιρινή", 
    "μπρικ ", 
    "μπριλέ ", 
    "μπρόκολο ", 
    "μπρουσκέτα ", 
    "μύδι ", 
    "μυλοκόπι ", 
    "νάαν", 
    "ναβαρέν", 
    "νάσι γκόρενγκ", 
    "ναστούρτιουμ", 
    "νεράντζι ", 
    "νεροκάρδαμο", 
    "νεφραμιά ", 
    "νιόκος ", 
    "νόρι ", 
    "νουά ", 
    "νουγκά", 
    "νούμπουλο ", 
    "νουντλς", 
    "ντάικον", 
    "ντάκος ", 
    "ντάμπλινγκς", 
    "ντιμ σαμ", 
    "ντιπ (dip)", 
    "ντιτζεστίφ", 
    "ντόβερ σολ", 
    "ντολμάδες ", 
    "ντολτσελάτε", 
    "ντομάτα", 
    "ντoμπ", 
    "ντούλσε ντε λέτσε", 
    "ντρέσινγκ", 
    "ξερολούκουμο ", 
    "ξεροτήγανο ", 
    "ξίδι ", 
    "ξίδι ", 
    "ξίδι από βύνη ", 
    "ξίδι από κρασί ", 
    "ξίδι από μηλόκρασο ", 
    "ξίδι", 
    "ξίδι", 
    "ξίδι", 
    "ξίδι", 
    "ξίδι", 
    "ξίδι βαλσαμικό", 
    "ξίδι", 
    "ξίδι", 
    "ξινόγαλο", 
    "ξινόμηλο ", 
    "ξινομυζήθρα ", 
    "ξινότυρο", 
    "ξιφίας ", 
    "ξινό κιτρικό", 
    "ξύσμα ", 
    "οϊστερ σος", 
    "ολαντέζ σος", 
    "ομαθιές ", 
    "οξύμελο", 
    "ορντέβρ", 
    "ορτύκι ", 
    "οσομπούκο", 
    "ούζο ", 
    "ουίσκι ", 
    "ουρά ", 
    "πάβλοβα ", 
    "παέγια ", 
    "πακ τσόι ", 
    "πακορά ", 
    "παλαμίδα ", 
    "παλμιέ ", 
    "πανετόνε ", 
    "πανίρ ", 
    "πάνκεϊκ ", 
    "παντζάρι ", 
    "παντσέτα ", 
    "παξιμάδι ", 
    "παπάγια ", 
    "πάπια ", 
    "πάπρικα ", 
    "παρμεζάνα ", 
    "παρφέ ", 
    "πασάτα ", 
    "πάστα φλόρα", 
    "παστέλι ", 
    "παστίς ", 
    "παστοκύδωνο ", 
    "παστουρμάς ", 
    "παστράμι ", 
    "πατάτα ", 
    "πατάτα ντισές", 
    "πατέ ", 
    "πατσάς", 
    "πεκορίνο ", 
    "πεπερονάτα ", 
    "πεπερόνι ", 
    "πεπόνι ", 
    "περγαμόντο ", 
    "περγαμόντο ", 
    "πεσκανδρίτσα ", 
    "πέστο ", 
    "πέστροφα ", 
    "πεταλίδα ", 
    "πετιμέζι ", 
    "πέτουλα ", 
    "πέτουρα ", 
    "πετροσωλήνας ", 
    "πηκτικό ", 
    "πηκτίνη ", 
    "πηχτή ", 
    "πικαλίλι ", 
    "πικάν ", 
    "πιλάφι ", 
    "πιμέντο ", 
    "πίνα ", 
    "πίνατ μπάτερ", 
    "πιπεράντ ", 
    "πιπέρι ", 
    "λευκό", 
    "μαύρο", 
    "πράσινο", 
    "ροζ ", 
    "σετσουάν ", 
    "πιπεριά ", 
    "πιπερόριζα ", 
    "πίρι πίρι ", 
    "πιροσκί ", 
    "πισαλαντιέρ ", 
    "πιστού ", 
    "πίτα ", 
    "πίτουρα ", 
    "πίτουρο ", 
    "πίτσα ", 
    "πιτσαϊόλα σος", 
    "πιτσούνι ", 
    "πλαστός ", 
    "πλιγούρι ", 
    "ποδαράκι ", 
    "πολέντα ", 
    "πομοντόρι ", 
    "πoν λεβέκ", 
    "ποντίκι ", 
    "πoντς ", 
    "πορτ ", 
    "πορτοκάλι ", 
    "πορφύρα ", 
    "ποτ-ο-φε", 
    "πούλπα ", 
    "πουσέν ", 
    "πουτίγκα ", 
    "πραλίνα ", 
    "πράσο ", 
    "προσούτο ", 
    "προσφυγάκι ", 
    "πρωτογαλιά ", 
    "πτιφούρ ", 
    "ραδίκι ", 
    "ραΐτα", 
    "ρακί ", 
    "ραμκέν", 
    "ράμεν", 
    "ραμπουτάν", 
    "ραντίκιο", 
    "ραπανάκι", 
    "ρας ελ χανούτ", 
    "ρατατούι", 
    "ραταφία", 
    "pαταφίας", 
    "ρέβα ", 
    "ρεβιθάλευρο ", 
    "ρεβίθι ", 
    "ρέγγα ", 
    "ρεμουλάντ σος", 
    "ρεμπλοσόν", 
    "ρίγανη ", 
    "ρίζι ε μπίζι", 
    "ριζότο ", 
    "ρικότα", 
    "ρίκι ", 
    "ρίφι", 
    "ρόδι ", 
    "ρόκα", 
    "ροκφόρ ", 
    "ρομπιόλα", 
    "ρονκάλ", 
    "ροστ μπιφ", 
    "ροστί", 
    "ρούμι ", 
    "ραβέντι", 
    "ρουτ μπιρ", 
    "ροφός ", 
    "ρύζι ", 
    "αγριόρυζο", 
    "αρμπόριο ", 
    "αφρικανικό ", 
    "βαλένσια ", 
    "γλασέ ", 
    "γλυκόρυζο ", 
    "ιαπωνικό ", 
    "καλιτζίρα ", 
    "καρολίνα ", 
    "καστανό ", 
    "κόκκινο ", 
    "κοσιχικάρι ", 
    "μαύρο ", 
    "μπασμάτι ", 
    "μπλου ρόουζ ", 
    "nυχάκι ", 
    "ουεχάνι ", 
    "πάτνα ", 
    "προβρασμένο ", 
    "τζασμίν ", 
    "σαβαγιάρ", 
    "σαβαρέν", 
    "σαβόι", 
    "σάκε", 
    "σαλάμι", 
    "σαλάχι", 
    "σαλιγκάρι", 
    "σαλμί", 
    "σάλπα", 
    "σάλσα", 
    "σάλσιφι", 
    "σαλτιμπόκα", 
    "σαμόσα", 
    "σαμπαγιόν", 
    "σαμπάλ", 
    "σαμπάνια", 
    "σαμπλέ μπισκότα", 
    "σαμπούκα", 
    "σαντιγί", 
    "σαργός", 
    "σαρδέλα", 
    "σαρδελομάνα ή φρίσσα", 
    "σαρλότ", 
    "σαρμάδες", 
    "σαρολέ", 
    "σάρπα", 
    "σασίμι", 
    "σατέ", 
    "σατομπριάν", 
    "σατσούμα", 
    "σαυρίδι", 
    "σαφράν", 
    "σεβίτσε", 
    "σελ σιρ σερ", 
    "σέλερι", 
    "σέλινο", 
    "σελινόσπορος", 
    "σελινόριζα", 
    "σεμολίνα", 
    "σέπερντς πάι", 
    "σεράνο χαμόν", 
    "σέρι ", 
    "σέσκουλο", 
    "σησαμέλαιο", 
    "σησάμι ή σουσάμι", 
    "σίζαρ σάλαντ", 
    "σίλαμπαμπ", 
    "σινάπι", 
    "σιρόπι", 
    "βύνης", 
    "γλυκόζης", 
    "ζαχαροκάλαμου", 
    "καλαμποκιού", 
    "σφενδάμου", 
    "σιτάρι ή στάρι", 
    "σκαθάρι ", 
    "σκαλοπίνια", 
    "σκάρος", 
    "σκιός", 
    "σκορδαλιά", 
    "σκόρδο", 
    "σκόρδο", 
    "σκορπίνα", 
    "σκουμπρί ", 
    "σμέρνα ", 
    "σνίτσελ", 
    "σόγια ", 
    "σόδα ", 
    "σόδα ", 
    "σόι σος", 
    "σοκολάτα ", 
    "διαδικασία παραγωγής ", 
    "σολομός ", 
    "σόμπα νουντλς", 
    "σόντα μπρεντ", 
    "σορμπέ", 
    "σόρτμπρεντ", 
    "σοσισόν", 
    "σουβλοελιά", 
    "σουκιγιάκι", 
    "σουκρούτ", 
    "σουλτανίνα ", 
    "σουμάκ", 
    "σουπιά ", 
    "σούσι", 
    "σουτζούκι ", 
    "σπάλα ", 
    "σπαλομπριζόλα ", 
    "σπανάκι ", 
    "σπαράγγι ", 
    "σπληνάντερο ", 
    "στάκα ", 
    "σταμναγκάθι", 
    "στακοβούτυρο", 
    "στάουτ", 
    "σταφίδα ", 
    "σταφύλι ", 
    "στήθος, ", 
    "στηθοπλευρές ", 
    "στηθόπλευρα ", 
    "στήρα ", 
    "στίλτον", 
    "στιφάδο ", 
    "στόλεν", 
    "στρατσατέλα", 
    "στρείδι ", 
    "στρουθοκάμηλος ", 
    "σύγκλινο ", 
    "σύκο ", 
    "σικιός ", 
    "συκώτι ", 
    "συναγρίδα ", 
    "σφολιάτα ", 
    "σφυρίδα ", 
    "σχοινόπρασο ή τσάιβ", 
    "σωλήνας ", 
    "ταβάς", 
    "ταζίν", 
    ")", 
    "τάκο", 
    "ταλέτζιο", 
    "ταμάρι", 
    "τάμαριντ πολτός", 
    "ταμπάσκο", 
    "ταμπουλέ", 
    "ταντζερίν", 
    "ταντούρι φούρνος", 
    "τάπας", 
    "ταπενάντ", 
    "ταπιόκα", 
    "ταραμάς", 
    "ταραμοσαλάτα", 
    "τάρο", 
    "τάρτα τατέν", 
    "ταρτάρ", 
    "ταχίνι", 
    "τεκίλα", 
    "τεντούρα", 
    "τεριγιάκι", 
    "τζερκ", 
    "τζέρκιν (gherkin) ", 
    "τζίντζερ", 
    "τζίντζερ έιλ", 
    "τζίντζερ μπιρ", 
    "τζον ντόρι ", 
    "τζουλαμάς", 
    "τηγανίτα", 
    "τι μπόουν", 
    "τομ ντε σαβουά", 
    "τόνος", 
    "τορτίγια", 
    "τορτίγιας", 
    "τουρκάκια", 
    "τούρμερικ", 
    "τουρνεντό ροσίνι", 
    "τουρσί", 
    "τουτουμάκια", 
    "τόφου", 
    "τράιφλ", 
    "τρανς", 
    "τρίπα", 
    "τριφτούδια ή τριφτιλίδια ", 
    "τρούφα", 
    "τσάγαλο", 
    "τσάιβ", 
    "τσαλαφούτι", 
    "τσαπάτι", 
    "τσάτνεϊ ", 
    "τσένταρ", 
    "τσιγαριαστά", 
    "τσιγαρίδες", 
    "τσιλαδιά", 
    "τσίλι", 
    "τσίλι κον κάρνε", 
    "τσιπολάτα", 
    "τσιπούρα", 
    "τσίρος ", 
    "τσιτσίραβλα", 
    "τσορίθο", 
    "τσουκνίδα", 
    "τσουμπλέκι", 
    "τσουρέκι", 
    "τυρί", 
    "τυροβολιά", 
    "τυρόψωμο", 
    "υδρόμελι", 
    "υποβρύχιο", 
    "φάβα", 
    "φαγγρί ", 
    "φαγόπυρο", 
    "φάιβ σπάις", 
    "φακές", 
    "φαλάφελ", 
    "φασκόμηλo", 
    "φασόλι", 
    "φατζ", 
    "φεϊζουάδα", 
    "φέτα", 
    "φιλέ μινιόν", 
    "φιλέτο", 
    "φιμέ", 
    "φινόκιο", 
    "φιούμ ορμπού", 
    "φιρίκι", 
    "φις σος", 
    "φιστικέλαιο", 
    "φιστίκι", 
    "φιστίκι αιγίνης", 
    "φιστικοβούτυρο", 
    "φλαν", 
    "φλάπτζακ", 
    "φλομάρι", 
    "φοινίκι", 
    "φοκάτσα", 
    "φοντί ", 
    "φοντίνα", 
    "φουαγκρά", 
    "φουντούκι ", 
    "φραγκομαϊντανός", 
    "φραγκόσυκο", 
    "φραμπουάζ", 
    "φρανκφούρτης λουκάνικο ", 
    "φράουλα", 
    "φρεντς ντρέσινγκ ", 
    "φρίσσα", 
    "φριτάτα", 
    "φρίτο μίστο", 
    "φρομάζ φρες", 
    "φρουτάλια", 
    "φύκι", 
    "φύλλο", 
    "φύλλο κρούστας ", 
    "χάβαρο ", 
    "χαβιάρι ", 
    "χαλβάς σιμιγδαλένιος", 
    "χαλβάς του μπακάλη ", 
    "χαλβάς ", 
    "χαλούμι ", 
    "χαμ ", 
    "χάμπουργκερ ", 
    "χάνος ", 
    "χαρίσα ", 
    "χας ", 
    "χάτζις ", 
    "χειμωνιάτικο πεπόνι", 
    "χέλι ", 
    "χελιδονόψαρο ", 
    "χόιζιν σος", 
    "χοιρινή ωμοπλάτη", 
    "χοιρινό ", 
    "χοιρινό μπούτι ", 
    "χοιρινός λαιμός ", 
    "χοίρος ή γουρούνι", 
    "χόντρος ", 
    "χορσράντις ", 
    "χορσράντις σος ", 
    "χούμους ", 
    "χουρμάς ", 
    "χουχουλιοί ", 
    "χρένο ", 
    "χριστόψαρο ", 
    "χριστόψωμο ", 
    "χταπόδι ", 
    "χτένι ", 
    "χύλοφτα ", 
    "ψάρι", 
    "ψαρογάρος", 
    "ψαροκόλυβα", 
    "ψαρονέφρι", 
    "ψωμί"
]